{
    "id": 12,
    "message": 259,
    "tag": "мем",
    "text": null,
    "file": {
        "type": "image",
        "path": "file_12.jpg",
        "text": "хочвшь Аовиться\n_Шёмьного успвхдг\n\n` ( ›\n\n    \n   \n\n„ {.,\n\nИДИ НАХУЙ\n\n"
    }
}