{
    "id": 5,
    "message": 184,
    "tag": "адрес",
    "text": null,
    "file": {
        "type": "image",
        "path": "file_1.jpg",
        "text": "ул аделя штуя казань\nостровского д 32\n\nдом 18 казань\n\n"
    }
}